…
### Problem 1

``` r
mr_trash = readxl::read_excel("./data/HealthyHarborWaterWheelTotals2018-7-28.xlsx") %>% 
  janitor::clean_names()
```

    ## New names:
    ## * `` -> ...15

``` r
mr_trash
```

    ## # A tibble: 336 x 15
    ##    dumpster month  year date                weight_tons volume_cubic_ya~
    ##       <dbl> <chr> <dbl> <dttm>                    <dbl>            <dbl>
    ##  1        1 May    2014 2014-05-16 00:00:00        4.31               18
    ##  2        2 May    2014 2014-05-16 00:00:00        2.74               13
    ##  3        3 May    2014 2014-05-16 00:00:00        3.45               15
    ##  4        4 May    2014 2014-05-17 00:00:00        3.1                15
    ##  5        5 May    2014 2014-05-17 00:00:00        4.06               18
    ##  6        6 May    2014 2014-05-20 00:00:00        2.71               13
    ##  7        7 May    2014 2014-05-21 00:00:00        1.91                8
    ##  8        8 May    2014 2014-05-28 00:00:00        3.7                16
    ##  9       NA May ~    NA NA                        26.0               116
    ## 10        9 June   2014 2014-06-05 00:00:00        2.52               14
    ## # ... with 326 more rows, and 9 more variables: plastic_bottles <dbl>,
    ## #   polystyrene <dbl>, cigarette_butts <dbl>, glass_bottles <dbl>,
    ## #   grocery_bags <dbl>, chip_bags <dbl>, sports_balls <dbl>,
    ## #   homes_powered <dbl>, x15 <chr>
